sample_name	Population	Population2	Valley	Region	order	Sample
LA0456_A14	CV1-P1_LA0456	CV1-P1	CV1	Central	1	CV1-P1 - LA0456_A14
LA0456_A15	CV1-P1_LA0456	CV1-P1	CV1	Central	2	CV1-P1 - LA0456_A15
LA0456_A16	CV1-P1_LA0456	CV1-P1	CV1	Central	3	CV1-P1 - LA0456_A16
LA0456_A17	CV1-P1_LA0456	CV1-P1	CV1	Central	4	CV1-P1 - LA0456_A17
LA0456_A18	CV1-P1_LA0456	CV1-P1	CV1	Central	5	CV1-P1 - LA0456_A18
LA0456_A19	CV1-P1_LA0456	CV1-P1	CV1	Central	6	CV1-P1 - LA0456_A19
LA0456_A20	CV1-P1_LA0456	CV1-P1	CV1	Central	7	CV1-P1 - LA0456_A20
LA0456_N01	CV1-P1_LA0456	CV1-P1	CV1	Central	8	CV1-P1 - LA0456_N01
LA0456_N03	CV1-P1_LA0456	CV1-P1	CV1	Central	9	CV1-P1 - LA0456_N03
LA0456_NO1	CV1-P1_LA0456	CV1-P1	CV1	Central	10	CV1-P1 - LA0456_NO1
LA1958_10	CV1-P2_LA1958	CV1-P2	CV1	Central	11	CV1-P2 - LA1958_10
LA1958_D23	CV1-P2_LA1958	CV1-P2	CV1	Central	12	CV1-P2 - LA1958_D23
LA1958_T12	CV1-P2_LA1958	CV1-P2	CV1	Central	13	CV1-P2 - LA1958_T12
LA1958_T2	CV1-P2_LA1958	CV1-P2	CV1	Central	14	CV1-P2 - LA1958_T2
LA1958_T4	CV1-P2_LA1958	CV1-P2	CV1	Central	15	CV1-P2 - LA1958_T4
LA1958_T5	CV1-P2_LA1958	CV1-P2	CV1	Central	16	CV1-P2 - LA1958_T5
LA1958_T6	CV1-P2_LA1958	CV1-P2	CV1	Central	17	CV1-P2 - LA1958_T6
LA1958_T7	CV1-P2_LA1958	CV1-P2	CV1	Central	18	CV1-P2 - LA1958_T7
LA1958_T8	CV1-P2_LA1958	CV1-P2	CV1	Central	19	CV1-P2 - LA1958_T8
LA1958_T9	CV1-P2_LA1958	CV1-P2	CV1	Central	20	CV1-P2 - LA1958_T9
LA1960_N01	CV1-P3_LA1960	CV1-P3	CV1	Central	21	CV1-P3 - LA1960_N01
LA1960_N02	CV1-P3_LA1960	CV1-P3	CV1	Central	22	CV1-P3 - LA1960_N02
LA1960_N03	CV1-P3_LA1960	CV1-P3	CV1	Central	23	CV1-P3 - LA1960_N03
LA1960_N04	CV1-P3_LA1960	CV1-P3	CV1	Central	24	CV1-P3 - LA1960_N04
LA1960_N05	CV1-P3_LA1960	CV1-P3	CV1	Central	25	CV1-P3 - LA1960_N05
LA1960_N06	CV1-P3_LA1960	CV1-P3	CV1	Central	26	CV1-P3 - LA1960_N06
LA1960_N07	CV1-P3_LA1960	CV1-P3	CV1	Central	27	CV1-P3 - LA1960_N07
LA1960_N08	CV1-P3_LA1960	CV1-P3	CV1	Central	28	CV1-P3 - LA1960_N08
LA1960_NO1	CV1-P3_LA1960	CV1-P3	CV1	Central	29	CV1-P3 - LA1960_NO1
LA1960_NO2	CV1-P3_LA1960	CV1-P3	CV1	Central	30	CV1-P3 - LA1960_NO2
LA2981A_NO1	CV1-P4_LA2981A	CV1-P4	CV1	Central	31	CV1-P4 - LA2981A_NO1
LA2981A_NO10	CV1-P4_LA2981A	CV1-P4	CV1	Central	32	CV1-P4 - LA2981A_NO10
LA2981A_NO11	CV1-P4_LA2981A	CV1-P4	CV1	Central	33	CV1-P4 - LA2981A_NO11
LA2981A_NO12	CV1-P4_LA2981A	CV1-P4	CV1	Central	34	CV1-P4 - LA2981A_NO12
LA2981A_NO2	CV1-P4_LA2981A	CV1-P4	CV1	Central	35	CV1-P4 - LA2981A_NO2
LA2981A_NO3	CV1-P4_LA2981A	CV1-P4	CV1	Central	36	CV1-P4 - LA2981A_NO3
LA2981A_NO6	CV1-P4_LA2981A	CV1-P4	CV1	Central	37	CV1-P4 - LA2981A_NO6
LA2981A_NO7	CV1-P4_LA2981A	CV1-P4	CV1	Central	38	CV1-P4 - LA2981A_NO7
LA2981A_NO8	CV1-P4_LA2981A	CV1-P4	CV1	Central	39	CV1-P4 - LA2981A_NO8
LA2981A_NO9	CV1-P4_LA2981A	CV1-P4	CV1	Central	40	CV1-P4 - LA2981A_NO9
LA3115_N01	CV2-P1_LA3115	CV2-P1	CV2	Central	41	CV2-P1 - LA3115_N01
LA3115_N02	CV2-P1_LA3115	CV2-P1	CV2	Central	42	CV2-P1 - LA3115_N02
LA3115_NO1	CV2-P1_LA3115	CV2-P1	CV2	Central	43	CV2-P1 - LA3115_NO1
LA3115_NO10	CV2-P1_LA3115	CV2-P1	CV2	Central	44	CV2-P1 - LA3115_NO10
LA3115_NO2	CV2-P1_LA3115	CV2-P1	CV2	Central	45	CV2-P1 - LA3115_NO2
LA3115_NO3	CV2-P1_LA3115	CV2-P1	CV2	Central	46	CV2-P1 - LA3115_NO3
LA3115_NO5	CV2-P1_LA3115	CV2-P1	CV2	Central	47	CV2-P1 - LA3115_NO5
LA3115_NO7	CV2-P1_LA3115	CV2-P1	CV2	Central	48	CV2-P1 - LA3115_NO7
LA3115_NO8	CV2-P1_LA3115	CV2-P1	CV2	Central	49	CV2-P1 - LA3115_NO8
LA3115_NO9	CV2-P1_LA3115	CV2-P1	CV2	Central	50	CV2-P1 - LA3115_NO9
LA1968_F10	CV2-P2_LA1968	CV2-P2	CV2	Central	51	CV2-P2 - LA1968_F10
LA1968_F11	CV2-P2_LA1968	CV2-P2	CV2	Central	52	CV2-P2 - LA1968_F11
LA1968_F12	CV2-P2_LA1968	CV2-P2	CV2	Central	53	CV2-P2 - LA1968_F12
LA1968_F13	CV2-P2_LA1968	CV2-P2	CV2	Central	54	CV2-P2 - LA1968_F13
LA1968_F14	CV2-P2_LA1968	CV2-P2	CV2	Central	55	CV2-P2 - LA1968_F14
LA1968_F7	CV2-P2_LA1968	CV2-P2	CV2	Central	56	CV2-P2 - LA1968_F7
LA1968_F8	CV2-P2_LA1968	CV2-P2	CV2	Central	57	CV2-P2 - LA1968_F8
LA1968_F9	CV2-P2_LA1968	CV2-P2	CV2	Central	58	CV2-P2 - LA1968_F9
LA1968_N01	CV2-P2_LA1968	CV2-P2	CV2	Central	59	CV2-P2 - LA1968_N01
LA1968_N02	CV2-P2_LA1968	CV2-P2	CV2	Central	60	CV2-P2 - LA1968_N02
LA3114_NO10	CV2-P3_LA3114	CV2-P3	CV2	Central	61	CV2-P3 - LA3114_NO10
LA3114_NO11	CV2-P3_LA3114	CV2-P3	CV2	Central	62	CV2-P3 - LA3114_NO11
LA3114_NO12	CV2-P3_LA3114	CV2-P3	CV2	Central	63	CV2-P3 - LA3114_NO12
LA3114_NO2	CV2-P3_LA3114	CV2-P3	CV2	Central	64	CV2-P3 - LA3114_NO2
LA3114_NO3	CV2-P3_LA3114	CV2-P3	CV2	Central	65	CV2-P3 - LA3114_NO3
LA3114_NO4	CV2-P3_LA3114	CV2-P3	CV2	Central	66	CV2-P3 - LA3114_NO4
LA3114_NO5	CV2-P3_LA3114	CV2-P3	CV2	Central	67	CV2-P3 - LA3114_NO5
LA3114_NO6	CV2-P3_LA3114	CV2-P3	CV2	Central	68	CV2-P3 - LA3114_NO6
LA3114_NO8	CV2-P3_LA3114	CV2-P3	CV2	Central	69	CV2-P3 - LA3114_NO8
LA3114_NO9	CV2-P3_LA3114	CV2-P3	CV2	Central	70	CV2-P3 - LA3114_NO9
LA3112_NO1	CV2-P5_LA3112	CV2-P4	CV2	Central	71	CV2-P4 - LA3112_NO1
LA3112_NO1A	CV2-P5_LA3112	CV2-P4	CV2	Central	72	CV2-P4 - LA3112_NO1A
LA3112_NO2	CV2-P5_LA3112	CV2-P4	CV2	Central	73	CV2-P4 - LA3112_NO2
LA3112_NO3	CV2-P5_LA3112	CV2-P4	CV2	Central	74	CV2-P4 - LA3112_NO3
LA3112_NO4	CV2-P5_LA3112	CV2-P4	CV2	Central	75	CV2-P4 - LA3112_NO4
LA3112_NO5	CV2-P5_LA3112	CV2-P4	CV2	Central	76	CV2-P4 - LA3112_NO5
LA3112_NO6	CV2-P5_LA3112	CV2-P4	CV2	Central	77	CV2-P4 - LA3112_NO6
LA3112_NO7	CV2-P5_LA3112	CV2-P4	CV2	Central	78	CV2-P4 - LA3112_NO7
LA3112_NO9	CV2-P5_LA3112	CV2-P4	CV2	Central	79	CV2-P4 - LA3112_NO9
LA3112_NO13	CV2-P5_LA3112	CV2-P4	CV2	Central	80	CV2-P4 - LA3112_N13
LA3111_N01	CV2-P4_LA3111	CV2-P5	CV2	Central	81	CV2-P5 - LA3111_N01
LA3111_N02	CV2-P4_LA3111	CV2-P5	CV2	Central	82	CV2-P5 - LA3111_N02
LA3111_N03	CV2-P4_LA3111	CV2-P5	CV2	Central	83	CV2-P5 - LA3111_N03
LA3111_N04	CV2-P4_LA3111	CV2-P5	CV2	Central	84	CV2-P5 - LA3111_N04
LA3111_N05	CV2-P4_LA3111	CV2-P5	CV2	Central	85	CV2-P5 - LA3111_N05
LA3111_N11	CV2-P4_LA3111	CV2-P5	CV2	Central	86	CV2-P5 - LA3111_N11
LA3111_N12	CV2-P4_LA3111	CV2-P5	CV2	Central	87	CV2-P5 - LA3111_N12
LA3111_N13	CV2-P4_LA3111	CV2-P5	CV2	Central	88	CV2-P5 - LA3111_N13
LA3111_N14	CV2-P4_LA3111	CV2-P5	CV2	Central	89	CV2-P5 - LA3111_N14
LA3111_N15	CV2-P4_LA3111	CV2-P5	CV2	Central	90	CV2-P5 - LA3111_N15
3111_t10	CV2-P4_LA3111	WGS_CV2-P5	CV2	Central	92	CV2-P5 - LA3111_t10_WGS
3111_t15	CV2-P4_LA3111	WGS_CV2-P5	CV2	Central	93	CV2-P5 - LA3111_t15_WGS
3111_t3	CV2-P4_LA3111	WGS_CV2-P5	CV2	Central	94	CV2-P5 - LA3111_t3_WGS
3111_t5	CV2-P4_LA3111	WGS_CV2-P5	CV2	Central	95	CV2-P5 - LA3111_t5_WGS
3111_t9	CV2-P4_LA3111	WGS_CV2-P5	CV2	Central	96	CV2-P5 - LA3111_t9_WGS
LA1963_N01	CV3-P1_LA1963	CV3-P1	CV3	Central	97	CV3-P1 - LA1963_N01
LA1963_N02	CV3-P1_LA1963	CV3-P1	CV3	Central	98	CV3-P1 - LA1963_N02
LA1963_T01	CV3-P1_LA1963	CV3-P1	CV3	Central	99	CV3-P1 - LA1963_T01
LA1963_T02	CV3-P1_LA1963	CV3-P1	CV3	Central	100	CV3-P1 - LA1963_T02
LA1963_T03	CV3-P1_LA1963	CV3-P1	CV3	Central	101	CV3-P1 - LA1963_T03
LA1963_T04	CV3-P1_LA1963	CV3-P1	CV3	Central	102	CV3-P1 - LA1963_T04
LA1963_T06	CV3-P1_LA1963	CV3-P1	CV3	Central	103	CV3-P1 - LA1963_T06
LA1963_T08	CV3-P1_LA1963	CV3-P1	CV3	Central	104	CV3-P1 - LA1963_T08
LA1963_T09	CV3-P1_LA1963	CV3-P1	CV3	Central	105	CV3-P1 - LA1963_T09
LA1963_T10	CV3-P1_LA1963	CV3-P1	CV3	Central	106	CV3-P1 - LA1963_T10
1963_t1	CV3-P1_LA1963	WGS_CV3-P1	CV3	Central	107	CV3-P1 - LA1963_t1_WGS
1963_t3	CV3-P1_LA1963	WGS_CV3-P1	CV3	Central	108	CV3-P1 - LA1963_t3_WGS
1963_t5	CV3-P1_LA1963	WGS_CV3-P1	CV3	Central	109	CV3-P1 - LA1963_t5_WGS
1963_t7	CV3-P1_LA1963	WGS_CV3-P1	CV3	Central	110	CV3-P1 - LA1963_t7_WGS
1963_t9	CV3-P1_LA1963	WGS_CV3-P1	CV3	Central	111	CV3-P1 - LA1963_t9_WGS
LA0458_B1	CV3-P2_LA0458	CV3-P2	CV3	Central	112	CV3-P2 - LA0458_B1
LA0458_B13	CV3-P2_LA0458	CV3-P2	CV3	Central	113	CV3-P2 - LA0458_B13
LA0458_B14	CV3-P2_LA0458	CV3-P2	CV3	Central	114	CV3-P2 - LA0458_B14
LA0458_B15	CV3-P2_LA0458	CV3-P2	CV3	Central	115	CV3-P2 - LA0458_B15
LA0458_B16	CV3-P2_LA0458	CV3-P2	CV3	Central	116	CV3-P2 - LA0458_B16
LA0458_B17	CV3-P2_LA0458	CV3-P2	CV3	Central	117	CV3-P2 - LA0458_B17
LA0458_B18	CV3-P2_LA0458	CV3-P2	CV3	Central	118	CV3-P2 - LA0458_B18
LA0458_B19	CV3-P2_LA0458	CV3-P2	CV3	Central	119	CV3-P2 - LA0458_B19
LA0458_B2	CV3-P2_LA0458	CV3-P2	CV3	Central	120	CV3-P2 - LA0458_B2
LA0458_NO2	CV3-P2_LA0458	CV3-P2	CV3	Central	121	CV3-P2 - LA0458_NO2
LA1967_N01	CV3-P3_LA1967	CV3-P3	CV3	Central	122	CV3-P3 - LA1967_N01
LA1967_NO1	CV3-P3_LA1967	CV3-P3	CV3	Central	123	CV3-P3 - LA1967_NO1
LA1967_NO10	CV3-P3_LA1967	CV3-P3	CV3	Central	124	CV3-P3 - LA1967_NO10
LA1967_NO11	CV3-P3_LA1967	CV3-P3	CV3	Central	125	CV3-P3 - LA1967_NO11
LA1967_NO2	CV3-P3_LA1967	CV3-P3	CV3	Central	126	CV3-P3 - LA1967_NO2
LA1967_NO3	CV3-P3_LA1967	CV3-P3	CV3	Central	127	CV3-P3 - LA1967_NO3
LA1967_NO4	CV3-P3_LA1967	CV3-P3	CV3	Central	128	CV3-P3 - LA1967_NO4
LA1967_NO5	CV3-P3_LA1967	CV3-P3	CV3	Central	129	CV3-P3 - LA1967_NO5
LA1967_NO6	CV3-P3_LA1967	CV3-P3	CV3	Central	130	CV3-P3 - LA1967_NO6
LA1967_NO7	CV3-P3_LA1967	CV3-P3	CV3	Central	131	CV3-P3 - LA1967_NO7
LA2965_NO1	CV3-P4_LA2965	CV3-P4	CV3	Central	132	CV3-P4 - LA2965_NO1
LA2965_NO10	CV3-P4_LA2965	CV3-P4	CV3	Central	133	CV3-P4 - LA2965_NO10
LA2965_NO12	CV3-P4_LA2965	CV3-P4	CV3	Central	134	CV3-P4 - LA2965_NO12
LA2965_NO14	CV3-P4_LA2965	CV3-P4	CV3	Central	135	CV3-P4 - LA2965_NO14
LA2965_NO2	CV3-P4_LA2965	CV3-P4	CV3	Central	136	CV3-P4 - LA2965_NO2
LA2965_NO21	CV3-P4_LA2965	CV3-P4	CV3	Central	137	CV3-P4 - LA2965_NO21
LA2965_NO3	CV3-P4_LA2965	CV3-P4	CV3	Central	138	CV3-P4 - LA2965_NO3
LA2965_NO4	CV3-P4_LA2965	CV3-P4	CV3	Central	139	CV3-P4 - LA2965_NO4
LA2965_NO5	CV3-P4_LA2965	CV3-P4	CV3	Central	140	CV3-P4 - LA2965_NO5
LA2965_NO8	CV3-P4_LA2965	CV3-P4	CV3	Central	141	CV3-P4 - LA2965_NO8
LA1965_NO1	CV3-P5_LA1965	CV3-P5	CV3	Central	142	CV3-P5 - LA1965_NO1
LA1965_NO10	CV3-P5_LA1965	CV3-P5	CV3	Central	143	CV3-P5 - LA1965_NO10
LA1965_NO11	CV3-P5_LA1965	CV3-P5	CV3	Central	144	CV3-P5 - LA1965_NO11
LA1965_NO14	CV3-P5_LA1965	CV3-P5	CV3	Central	145	CV3-P5 - LA1965_NO14
LA1965_NO16	CV3-P5_LA1965	CV3-P5	CV3	Central	146	CV3-P5 - LA1965_NO16
LA1965_NO2	CV3-P5_LA1965	CV3-P5	CV3	Central	147	CV3-P5 - LA1965_NO2
LA1965_NO3	CV3-P5_LA1965	CV3-P5	CV3	Central	148	CV3-P5 - LA1965_NO3
LA1965_NO6	CV3-P5_LA1965	CV3-P5	CV3	Central	149	CV3-P5 - LA1965_NO6
LA1965_NO8	CV3-P5_LA1965	CV3-P5	CV3	Central	150	CV3-P5 - LA1965_NO8
LA1965_NO9	CV3-P5_LA1965	CV3-P5	CV3	Central	151	CV3-P5 - LA1965_NO9
LA2751_NO10	CV4-P1_LA2751	CV4-P1	CV4	Central	152	CV4-P1 - LA2751_NO10
LA2751_NO11	CV4-P1_LA2751	CV4-P1	CV4	Central	153	CV4-P1 - LA2751_NO11
LA2751_NO13	CV4-P1_LA2751	CV4-P1	CV4	Central	154	CV4-P1 - LA2751_NO13
LA2751_NO3	CV4-P1_LA2751	CV4-P1	CV4	Central	155	CV4-P1 - LA2751_NO3
LA2751_NO4	CV4-P1_LA2751	CV4-P1	CV4	Central	156	CV4-P1 - LA2751_NO4
LA2751_NO5	CV4-P1_LA2751	CV4-P1	CV4	Central	157	CV4-P1 - LA2751_NO5
LA2751_NO6	CV4-P1_LA2751	CV4-P1	CV4	Central	158	CV4-P1 - LA2751_NO6
LA2751_NO7	CV4-P1_LA2751	CV4-P1	CV4	Central	159	CV4-P1 - LA2751_NO7
LA2751_NO8	CV4-P1_LA2751	CV4-P1	CV4	Central	160	CV4-P1 - LA2751_NO8
LA2751_NO9	CV4-P1_LA2751	CV4-P1	CV4	Central	161	CV4-P1 - LA2751_NO9
LA2753_J29	CV4-P2_LA2753	CV4-P2	CV4	Central	162	CV4-P2 - LA2753_J29
LA2753_J30	CV4-P2_LA2753	CV4-P2	CV4	Central	163	CV4-P2 - LA2753_J30
LA2753_J33	CV4-P2_LA2753	CV4-P2	CV4	Central	164	CV4-P2 - LA2753_J33
LA2753_J34	CV4-P2_LA2753	CV4-P2	CV4	Central	165	CV4-P2 - LA2753_J34
LA2753_N01	CV4-P2_LA2753	CV4-P2	CV4	Central	166	CV4-P2 - LA2753_N01
LA2753_N02	CV4-P2_LA2753	CV4-P2	CV4	Central	167	CV4-P2 - LA2753_N02
LA2753_N03	CV4-P2_LA2753	CV4-P2	CV4	Central	168	CV4-P2 - LA2753_N03
LA2753_N04	CV4-P2_LA2753	CV4-P2	CV4	Central	169	CV4-P2 - LA2753_N04
LA2753_N05	CV4-P2_LA2753	CV4-P2	CV4	Central	170	CV4-P2 - LA2753_N05
LA2753_N06	CV4-P2_LA2753	CV4-P2	CV4	Central	171	CV4-P2 - LA2753_N06
LA2754_NO1	CV4-P3_LA2754	CV4-P3	CV4	Central	172	CV4-P3 - LA2754_NO1
LA2754_NO11	CV4-P3_LA2754	CV4-P3	CV4	Central	173	CV4-P3 - LA2754_NO11
LA2754_NO12	CV4-P3_LA2754	CV4-P3	CV4	Central	174	CV4-P3 - LA2754_NO12
LA2754_NO2	CV4-P3_LA2754	CV4-P3	CV4	Central	175	CV4-P3 - LA2754_NO2
LA2754_NO3	CV4-P3_LA2754	CV4-P3	CV4	Central	176	CV4-P3 - LA2754_NO3
LA2754_NO4	CV4-P3_LA2754	CV4-P3	CV4	Central	177	CV4-P3 - LA2754_NO4
LA2754_NO5	CV4-P3_LA2754	CV4-P3	CV4	Central	178	CV4-P3 - LA2754_NO5
LA2754_NO6	CV4-P3_LA2754	CV4-P3	CV4	Central	179	CV4-P3 - LA2754_NO6
LA2754_NO7	CV4-P3_LA2754	CV4-P3	CV4	Central	180	CV4-P3 - LA2754_NO7
LA2754_NO8	CV4-P3_LA2754	CV4-P3	CV4	Central	181	CV4-P3 - LA2754_NO8
LA2755_K1	CV4-P4_LA2755	CV4-P4	CV4	Central	182	CV4-P4 - LA2755_K1
LA2755_K2	CV4-P4_LA2755	CV4-P4	CV4	Central	183	CV4-P4 - LA2755_K2
LA2755_K24	CV4-P4_LA2755	CV4-P4	CV4	Central	184	CV4-P4 - LA2755_K24
LA2755_K25	CV4-P4_LA2755	CV4-P4	CV4	Central	185	CV4-P4 - LA2755_K25
LA2755_K3	CV4-P4_LA2755	CV4-P4	CV4	Central	186	CV4-P4 - LA2755_K3
LA2755_N01	CV4-P4_LA2755	CV4-P4	CV4	Central	187	CV4-P4 - LA2755_N01
LA2755_N02	CV4-P4_LA2755	CV4-P4	CV4	Central	188	CV4-P4 - LA2755_N02
LA2755_N03	CV4-P4_LA2755	CV4-P4	CV4	Central	189	CV4-P4 - LA2755_N03
LA2755_N04	CV4-P4_LA2755	CV4-P4	CV4	Central	190	CV4-P4 - LA2755_N04
LA2755_N05	CV4-P4_LA2755	CV4-P4	CV4	Central	191	CV4-P4 - LA2755_N05
2931_t2	Central_LA2931	WGS_CV5-P1	CV5	Central	192	Central - 2931_t2_WGS
2931_t3	Central_LA2931	WGS_CV5-P1	CV5	Central	193	Central - 2931_t3_WGS
2931_t4	Central_LA2931	WGS_CV5-P1	CV5	Central	194	Central - 2931_t4_WGS
2931_t5	Central_LA2931	WGS_CV5-P1	CV5	Central	195	Central - 2931_t5_WGS
2931_t6	Central_LA2931	WGS_CV5-P1	CV5	Central	196	Central - 2931_t6_WGS
LA2749_NO2	Coast_LA2749	Coast	Coast	Coast	197	Coast - LA2749_NO2
LA2750_N02	Coast_LA2750	Coast	Coast	Coast	198	Coast - LA2750_N02
LA2932_N02	Coast_LA2932	Coast	Coast	Coast	199	Coast - LA2932_N02
LA4106_NO2	Coast_LA4106	Coast	Coast	Coast	200	Coast - LA4106_NO2
LA4107_N01	Coast_LA4107	Coast	Coast	Coast	201	Coast - LA4107_N01
LA4108_T30	Coast_LA4108	Coast	Coast	Coast	202	Coast - LA4108_T30
LA4109_NO1	Coast_LA4109	Coast	Coast	Coast	203	Coast - LA4109_NO1
LA4336_NO1	Coast_LA4336	Coast	Coast	Coast	204	Coast - LA4336_NO1
LA4338_NO2	Coast_LA4338	Coast	Coast	Coast	205	Coast - LA4338_NO2
LA4339_NO1	Coast_LA4339	Coast	Coast	Coast	206	Coast - LA4339_NO1
2932_1	Coast_LA2932_WGS	WGS_Coast1	Coast	Coast	207	Coast - LA2932_1_WGS
2932_12	Coast_LA2932_WGS	WGS_Coast1	Coast	Coast	208	Coast - LA2932_12_WGS
2932_20	Coast_LA2932_WGS	WGS_Coast1	Coast	Coast	209	Coast - LA2932_20_WGS
2932_22	Coast_LA2932_WGS	WGS_Coast1	Coast	Coast	210	Coast - LA2932_22_WGS
2932_8	Coast_LA2932_WGS	WGS_Coast1	Coast	Coast	211	Coast - LA2932_8_WGS
4107_3	Coast_LA4107_WGS	WGS_Coast2	Coast	Coast	212	Coast - LA4107_3_WGS
4107_6	Coast_LA4107_WGS	WGS_Coast2	Coast	Coast	213	Coast - LA4107_6_WGS
4107_9	Coast_LA4107_WGS	WGS_Coast2	Coast	Coast	214	Coast - LA4107_9_WGS
4107_t11	Coast_LA4107_WGS	WGS_Coast2	Coast	Coast	215	Coast - LA4107_t11_WGS
4107_t5	Coast_LA4107_WGS	WGS_Coast2	Coast	Coast	215	Coast - LA4107_t5_WGS
LA2880_N17	Highland_LA2880	Highland	Highland	Highland	217	Highland - LA2880_N17
LA2884_NO5	Highland_LA2884	Highland	Highland	Highland	218	Highland - LA2884_NO5
LA4117A_N05	Highland_LA4117A	Highland	Highland	Highland	219	Highland - LA4117A_N05
LA4118_N02	Highland_LA4118	Highland	Highland	Highland	220	Highland - LA4118_N02
LA4119_V16	Highland_LA4119	Highland	Highland	Highland	221	Highland - LA4119_V16
LA4329_NO2	Highland_LA4329	Highland	Highland	Highland	222	Highland - LA4329_NO2
LA4330_N02	Highland_LA4330	Highland	Highland	Highland	223	Highland - LA4330_N02
LA4332_X1	Highland_LA4332	Highland	Highland	Highland	224	Highland - LA4332_X1
LA4334_NO1	Highland_LA4334	Highland	Highland	Highland	225	Highland - LA4334_NO1
LA4335_NO1	Highland_LA4335	Highland	Highland	Highland	226	Highland - LA4335_NO1
4330_t1	Highland_LA4330	WGS_Highland1	Highland	Highland	228	Highland - LA4330_t1_WGS
4330_t12	Highland_LA4330	WGS_Highland1	Highland	Highland	229	Highland - LA4330_t12_WGS
4330_t4	Highland_LA4330	WGS_Highland1	Highland	Highland	230	Highland - LA4330_t4_WGS
4330_t6	Highland_LA4330	WGS_Highland1	Highland	Highland	231	Highland - LA4330_t6_WGS
4330_t9	Highland_LA4330	WGS_Highland1	Highland	Highland	232	Highland - LA4330_t9_WGS
LA3111_ref	CV2-P4_LA3111	LA3111_REFERENCE	REF	Central	238	LA3111_REFERENCE
S.cheesmaniae-LA0422.cds	S_cheesmaniae_LA0422	panNLR_S_cheesmaniae	Outgroup	S_cheesmaniae	243	S_cheesmaniae – LA0422
S.cheesmaniae-LA1039.cds	S_cheesmaniae_LA1039	panNLR_S_cheesmaniae	Outgroup	S_cheesmaniae	243	S_cheesmaniae – LA1039
S.cheesmaniae-LA1404.cds	S_cheesmaniae_LA1404	panNLR_S_cheesmaniae	Outgroup	S_cheesmaniae	244	S_cheesmaniae – LA1404
S.chmielewskii-LA1316.cds	S_chmielewskii_LA1316	panNLR_S_chmielewskii	Outgroup	S_chmielewskii	245	S_chmielewskii – LA1316
S.chmielewskii-LA1330.cds	S_chmielewskii_LA1330	panNLR_S_chmielewskii	Outgroup	S_chmielewskii	246	S_chmielewskii – LA1330
S.chmielewskii-LA2663.cds	S_chmielewskii_LA2663	panNLR_S_chmielewskii	Outgroup	S_chmielewskii	247	S_chmielewskii – LA2663
S.galapagense-LA0483.cds	S_galapagense_LA0483	panNLR_S_galapagense	Outgroup	S_galapagense	248	S_galapagense – LA0483
S.galapagense-LA1136.cds	S_galapagense_LA1136	panNLR_S_galapagense	Outgroup	S_galapagense	249	S_galapagense – LA1136
S.galapagense-LA1401.cds	S_galapagense_LA1401	panNLR_S_galapagense	Outgroup	S_galapagense	250	S_galapagense – LA1401
S.neorickii-LA1322.cds	S_neorickii_LA1322	panNLR_S_neorickii	Outgroup	S_neorickii	251	S_neorickii - LA1322
S.neorickii-LA1716.cds	S_neorickii_LA1716	panNLR_S_neorickii	Outgroup	S_neorickii	252	S_neorickii - LA1716
S.neorickii-LA2133.cds	S_neorickii_LA2133	panNLR_S_neorickii	Outgroup	S_neorickii	253	S_neorickii - LA2133
S.pimpinellifolium-LA0411.cds	S_pimpinellifolium_LA0411	panNLR_S_pimpinellifolium	Outgroup	S_pimpinellifolium	254	S_pimpinellifolium - LA0411
S.pimpinellifolium-LA0722.cds	S_pimpinellifolium_LA0722	panNLR_S_pimpinellifolium	Outgroup	S_pimpinellifolium	255	S_pimpinellifolium - LA0722
S.lycopersicum-Heinz.cds	S_lycopersicum_Heinz	panNLR_S_lycopersicum	Outgroup	S_lycopersicum	256	S_lycopersicum – Heinz
C.annuum-ECW20R.cds	C_annuum_panNLR	panNLR_C_annuum	Outgroup	C_annuum	257	C_annuum – ECW20R_panNLR
N.benthamiana-bentha.cds	N_benthamiana_panNLR	panNLR_N_benthamiana	Outgroup	N_benthamiana	258	N_benthamiana – panNLR
